PHYSICS 111A/Problem_4.2_Data.csv

#Digilent WaveForms Oscilloscope Acquisition
#Device Name: DiscoveryStudio
#Serial Number: SN:210384AEE647
#Date Time: 2024-02-14 15:22:26.796
#Sample rate: 80000Hz
#Samples: 8192
#Trigger: Source: Wavegen C1 Condition: Rising
#Channel 1: Range: 500 mV/div Offset: 0 V Attenuation: 1 X Sample Mode: Average
#Channel 2: Range: 200 mV/div Offset: 0 V Attenuation: 1 X Sample Mode: Average
#Wavegen Channel 1: Enabled
#Mode: Simple
#Type: RampUp
#Frequency: 9.8 Hz
#Period: 102.040816 ms
#Amplitude: 1.75 V
#Offset: 1.25 V
#Symmetry: 100 %
#Phase: 0 °

Time (s),Channel 1 (V),Channel 2 (V)
-0.0002000000000000057,2.225935099014538,0.6495068925833597
-0.0001875000000000002,2.226270041220153,0.649164245935249
-0.0001750000000000015,2.22693992563138,0.6495068925833597
-0.0001625000000000029,2.227609810042609,0.6491642459352489
-0.0001500000000000043,2.227274867836994,0.6491642459352489
-0.0001375000000000057,2.227609810042609,0.6495068925833597
-0.0001250000000000001,2.228279694453837,0.6495068925833597
-0.0001125000000000015,2.227944752248223,0.6495068925833597
-0.0001000000000000029,2.227944752248223,0.6498495392314706
-8.750000000000424e-05,2.229284521070679,0.6491642459352489
-7.500000000000562e-05,2.229619463276293,0.6498495392314706
-6.250000000000006e-05,2.229954405481907,0.649164245935249
-5.000000000000143e-05,2.229954405481907,0.6495068925833597
-3.750000000000281e-05,2.230624289893136,0.6491642459352489
-2.500000000000419e-05,2.231629116509978,0.6495068925833597
-1.250000000000556e-05,0.2611641208820191,-0.348280146715469
0,-0.003440221553147296,-0.5011005517729133
1.249999999999862e-05,-0.002100452730691363,-0.5014431984210241
2.499999999999725e-05,-0.001430568319463092,-0.5007579051248024
3.749999999999587e-05,-0.0007606839082348214,-0.5007579051248024
4.999999999999449e-05,-0.001095626113848957,-0.5004152584766915
6.250000000000006e-05,-0.001095626113848805,-0.5000726118285805
7.499999999999868e-05,-0.0007606839082348214,-0.4997299651804698
8.74999999999973e-05,-0.0007606839082348214,-0.4997299651804698
9.999999999999593e-05,-0.001095626113848957,-0.4983593785880264
0.0001124999999999945,-0.0007606839082348214,-0.4987020252361372
0.0001250000000000001,-0.0007606839082348214,-0.4976740852918046
0.0001374999999999987,-0.0007606839082348214,-0.4976740852918046
0.0001499999999999974,-0.0007606839082348214,-0.4976740852918046
0.000162499999999996,-0.001095626113848957,-0.4966461453474721
0.0001749999999999946,-0.0007606839082348214,-0.4963034986993612
0.0001875000000000002,-0.0007606839082348214,-0.4959608520512502
0.0001999999999999988,-0.0007606839082348214,-0.4956182054031395
0.0002124999999999974,-0.001095626113848957,-0.4959608520512503
0.000224999999999996,-0.001095626113848957,-0.4959608520512503
0.0002374999999999947,-0.0007606839082348214,-0.4952755587550286
0.0002499999999999933,-0.001095626113848805,-0.4942476188106965
0.0002624999999999988,-0.001095626113848957,-0.4935623255144743
0.0002749999999999975,-0.001095626113848957,-0.4932196788663635
0.0002874999999999961,-0.0007606839082348214,-0.4928770322182526
0.0002999999999999947,-0.001095626113848957,-0.4921917389220309
0.0003124999999999933,-0.001095626113848957,-0.4918490922739202
0.0003249999999999989,-0.001095626113848957,-0.4908211523295874
0.0003374999999999975,-0.001095626113848957,-0.4904785056814766
0.0003499999999999961,-0.001095626113848957,-0.4901358590333657
0.0003624999999999948,-0.001095626113848957,-0.4897932123852549
0.0003749999999999934,-0.001095626113848957,-0.4891079190890334
0.000387499999999999,-0.001095626113848957,-0.4884226257928114
0.0003999999999999976,-0.001095626113848957,-0.4880799791447005
0.0004124999999999962,-0.001095626113848957,-0.4873946858484788
0.0004249999999999948,-0.001095626113848957,-0.4873946858484788
0.0004374999999999934,-0.001095626113848957,-0.4877373324965895
0.000449999999999999,-0.001095626113848957,-0.4873946858484788
0.0004624999999999976,-0.001095626113848957,-0.4870520392003679
0.0004749999999999963,-0.001095626113848957,-0.4863667459041462
0.0004874999999999949,-0.001095626113848957,-0.4856814526079245
0.0004999999999999935,-0.001095626113848957,-0.4853388059598138
0.0005124999999999991,-0.001095626113848957,-0.4846535126635919
0.0005249999999999977,-0.001095626113848957,-0.4843108660154811
0.0005374999999999963,-0.001095626113848957,-0.4839682193673702
0.0005499999999999949,-0.001095626113848957,-0.4829402794230376
0.0005624999999999936,-0.001095626113848957,-0.4829402794230376
0.0005749999999999991,-0.001095626113848957,-0.4825976327749267
0.0005874999999999977,-0.001095626113848957,-0.4822549861268159
0.0005999999999999964,-0.001095626113848957,-0.4825976327749267
0.000612499999999995,-0.001095626113848957,-0.4812270461824833
0.0006249999999999936,-0.001095626113848957,-0.4808843995343726
0.0006374999999999992,-0.001095626113848957,-0.4798564595900399
0.0006499999999999978,-0.001095626113848957,-0.4798564595900399
0.0006624999999999964,-0.001430568319463092,-0.4801991062381507
0.000674999999999995,-0.001095626113848957,-0.4798564595900399
0.0006874999999999937,-0.001095626113848957,-0.4791711662938185
0.0006999999999999992,-0.001430568319463092,-0.4784858729975964
0.0007124999999999979,-0.001095626113848957,-0.4781432263494855
0.0007249999999999965,-0.001095626113848957,-0.4771152864051529
0.0007374999999999951,-0.001095626113848957,-0.4771152864051529
0.0007499999999999937,-0.00143056831946294,-0.4767726397570423
0.0007624999999999993,-0.001095626113848957,-0.4760873464608203
0.0007749999999999979,-0.001430568319463092,-0.4757446998127095
0.0007874999999999965,-0.001430568319463092,-0.4754020531645987
0.0007999999999999952,-0.001095626113848957,-0.4747167598683769
0.0008124999999999938,-0.001095626113848957,-0.4743741132202662
0.0008249999999999993,-0.001095626113848957,-0.4740314665721552
0.000837499999999998,-0.001095626113848957,-0.4736888199240443
0.0008499999999999966,-0.001095626113848957,-0.4730035266278226
0.0008624999999999952,-0.0007606839082348214,-0.47197558668349
0.0008749999999999938,-0.001095626113848805,-0.4716329400353794
0.0008874999999999994,-0.001095626113848957,-0.4716329400353792
0.000899999999999998,-0.001095626113848957,-0.4712902933872683
0.0009124999999999966,-0.001095626113848957,-0.4709476467391575
0.0009249999999999953,-0.001430568319463092,-0.4702623534429357
0.0009374999999999939,-0.001095626113848957,-0.4709476467391575
0.0009499999999999995,-0.001095626113848957,-0.4688917668504923
0.0009624999999999981,-0.001095626113848957,-0.4692344134986031
0.0009749999999999967,-0.001095626113848957,-0.4688917668504923
0.0009874999999999953,-0.001095626113848957,-0.4685491202023814
0.0009999999999999939,-0.001095626113848957,-0.4678638269061597
0.0010125,-0.001095626113848957,-0.4678638269061597
0.001024999999999998,-0.001095626113848957,-0.4668358869618271
0.001037499999999997,-0.001095626113848957,-0.4661505936656054
0.001049999999999995,-0.001095626113848957,-0.4658079470174945
0.001062499999999994,-0.001095626113848957,-0.4654653003693837
0.001075,-0.001095626113848957,-0.4654653003693837
0.001087499999999998,-0.001095626113848957,-0.4654653003693837
0.001099999999999997,-0.001095626113848957,-0.4647800070731619
0.001112499999999995,-0.001095626113848957,-0.4644373604250511
0.001124999999999994,-0.001430568319463092,-0.4637520671288294
0.0011375,-0.001095626113848957,-0.4630667738326075
0.001149999999999998,-0.001095626113848957,-0.4627241271844968
0.001162499999999997,-0.001095626113848957,-0.4627241271844968
0.001174999999999995,-0.001095626113848957,-0.4613535405920533
0.001187499999999994,-0.001095626113848957,-0.4616961872401642
0.0012,-0.001095626113848957,-0.4610108939439423
0.001212499999999998,-0.001095626113848957,-0.4606682472958316
0.001224999999999997,-0.001095626113848957,-0.4603256006477208
0.001237499999999996,-0.001430568319463092,-0.4592976607033882
0.001249999999999994,-0.001095626113848957,-0.4592976607033882
0.0012625,-0.00143056831946294,-0.4589550140552771
0.001274999999999998,-0.001095626113848957,-0.4586123674071664
0.001287499999999997,-0.001095626113848957,-0.4582697207590556
0.001299999999999996,-0.001095626113848957,-0.4579270741109447
0.001312499999999994,-0.001095626113848957,-0.4579270741109447
0.001325,-0.001095626113848957,-0.4572417808147227
0.001337499999999998,-0.001095626113848957,-0.4565564875185013
0.001349999999999997,-0.001095626113848957,-0.4558711942222796
0.001362499999999996,-0.001095626113848957,-0.4555285475741687
0.001374999999999994,-0.001095626113848957,-0.4551859009260578
0.0013875,-0.001095626113848957,-0.4548432542779465
0.001399999999999998,-0.001095626113848957,-0.4538153143336144
0.001412499999999997,-0.001095626113848957,-0.4538153143336144
0.001424999999999996,-0.001095626113848957,-0.4531300210373926
0.001437499999999994,-0.001095626113848957,-0.4527873743892818
0.00145,-0.001095626113848957,-0.4527873743892816
0.001462499999999999,-0.001095626113848957,-0.4524447277411709
0.001474999999999997,-0.001095626113848957,-0.4524447277411709
0.001487499999999996,-0.001095626113848957,-0.4507314945006166
0.001499999999999994,-0.001430568319463092,-0.4510741411487275
0.0015125,-0.001095626113848957,-0.4503888478525058
0.001524999999999999,-0.001095626113848957,-0.4503888478525058
0.001537499999999997,-0.001095626113848957,-0.4500462012043949
0.001549999999999996,-0.001095626113848957,-0.4500462012043949
0.001562499999999994,-0.001095626113848957,-0.449703554556284
0.001575,-0.001095626113848957,-0.4479903213157296
0.001587499999999999,-0.001095626113848957,-0.4476476746676188
0.001599999999999997,-0.001095626113848957,-0.447305028019508
0.001612499999999996,-0.001095626113848957,-0.4466197347232863
0.001624999999999995,-0.001095626113848957,-0.4469623813713972
0.0016375,-0.001095626113848957,-0.446277088075175
0.001649999999999999,-0.001095626113848957,-0.4452491481308428
0.001662499999999997,-0.001430568319463092,-0.444906501482732
0.001674999999999996,-0.001095626113848957,-0.4445638548346211
0.001687499999999995,-0.0007606839082348214,-0.4438785615383994
0.0017,-0.001095626113848957,-0.4435359148902882
0.001712499999999999,-0.001095626113848957,-0.4428506215940668
0.001724999999999997,-0.0007606839082348214,-0.4428506215940668
0.001737499999999996,-0.0007606839082348214,-0.4421653282978451
0.001749999999999995,-0.001095626113848957,-0.4421653282978451
0.0017625,-0.001095626113849109,-0.4425079749459558
0.001774999999999999,-0.001430568319463092,-0.4421653282978451
0.001787499999999997,-0.001430568319463092,-0.4418226816497342
0.001799999999999996,-0.001095626113848957,-0.4407947417054016
0.001812499999999995,-0.001095626113848957,-0.4401094484091799
0.001824999999999993,-0.001095626113848957,-0.4397668017610692
0.001837499999999999,-0.001095626113848957,-0.4390815084648473
0.001849999999999997,-0.001095626113848957,-0.4390815084648473
0.001862499999999996,-0.001095626113848957,-0.4383962151686256
0.001874999999999995,-0.001095626113848957,-0.4377109218724039
0.001887499999999993,-0.001095626113848957,-0.4377109218724039
0.001899999999999999,-0.001095626113848957,-0.4370256285761822
0.001912499999999998,-0.001430568319463092,-0.4366829819280713
0.001924999999999996,-0.001095626113848957,-0.4363403352799604
0.001937499999999995,-0.001095626113848957,-0.4353123953356279
0.001949999999999993,-0.001095626113848957,-0.4349697486875171
0.001962499999999999,-0.001095626113848957,-0.4342844553912953
0.001974999999999998,-0.001095626113848957,-0.4346271020394061
0.001987499999999996,-0.001095626113848957,-0.4346271020394061
0.001999999999999995,-0.001095626113848957,-0.4342844553912953
0.002012499999999993,-0.0007606839082349737,-0.4339418087431846
0.002024999999999999,-0.001095626113848957,-0.432571222150741
0.002037499999999998,-0.001095626113848957,-0.432571222150741
0.002049999999999996,-0.001095626113848957,-0.4318859288545193
0.002062499999999995,-0.001095626113848957,-0.4318859288545193
0.002074999999999994,-0.001095626113848957,-0.4312006355582979
0.002087499999999999,-0.001095626113848957,-0.4305153422620758
0.002099999999999998,-0.001095626113848957,-0.4298300489658541
0.002112499999999996,-0.001095626113848957,-0.4298300489658541
0.002124999999999995,-0.001095626113848957,-0.4294874023177432
0.002137499999999994,-0.0007606839082349737,-0.4288021090215218
0.002149999999999999,-0.001430568319463092,-0.4288021090215215
0.002162499999999998,-0.001430568319463092,-0.4281168157252997
0.002174999999999996,-0.001095626113848957,-0.4284594623734106
0.002187499999999995,-0.001430568319463092,-0.4281168157252997
0.002199999999999994,-0.001095626113849109,-0.4267462291328569
0.002212499999999999,-0.001095626113848957,-0.4267462291328563
0.002224999999999998,-0.001095626113848957,-0.4264035824847455
0.002237499999999996,-0.001095626113848957,-0.4257182891885237
0.002249999999999995,-0.001095626113848957,-0.4253756425404129
0.002262499999999994,-0.001095626113848957,-0.4246903492441915
0.002274999999999999,-0.001095626113848957,-0.4240050559479694
0.002287499999999998,-0.001095626113848957,-0.4236624092998585
0.002299999999999996,-0.001095626113848957,-0.4233197626517477
0.002312499999999995,-0.001095626113848957,-0.4229771160036369
0.002324999999999994,-0.001095626113848957,-0.4229771160036369
0.002337499999999999,-0.001095626113848957,-0.4212638827630825
0.002349999999999998,-0.001095626113848957,-0.4212638827630825
0.002362499999999997,-0.001095626113848957,-0.4205785894668608
0.002374999999999995,-0.001095626113848957,-0.4205785894668608
0.002387499999999994,-0.001095626113848957,-0.4202359428187501
0.002399999999999999,-0.001095626113848957,-0.4205785894668608
0.002412499999999998,-0.001095626113848957,-0.4202359428187499
0.002424999999999997,-0.0007606839082348214,-0.4192080028744173
0.002437499999999995,-0.001095626113848957,-0.4188653562263065
0.002449999999999994,-0.001095626113848957,-0.4181800629300851
0.002462499999999999,-0.001095626113848957,-0.4178374162819739
0.002474999999999998,-0.001095626113848957,-0.4174947696338631
0.002487499999999997,-0.0007606839082348214,-0.4168094763376413
0.002499999999999995,-0.0007606839082348214,-0.4164668296895305
0.002512499999999994,-0.001095626113848957,-0.4161241830414196
0.002524999999999999,-0.001095626113848957,-0.4154388897451979
0.002537499999999998,-0.001430568319463092,-0.4147535964489761
0.002549999999999997,-0.001095626113848957,-0.4147535964489761
0.002562499999999995,-0.001095626113848957,-0.4133830098565327
0.002574999999999994,-0.001095626113848957,-0.4137256565046436
0.0025875,-0.001095626113848957,-0.4130403632084219
0.002599999999999998,-0.001095626113848957,-0.4130403632084219
0.002612499999999997,-0.001095626113848957,-0.4123550699122001
0.002624999999999995,-0.0007606839082348214,-0.4123550699122001
0.002637499999999994,-0.001095626113848957,-0.412697716560311
0.00265,-0.0007606839082349737,-0.4113271299678674
0.002662499999999998,-0.001095626113848957,-0.4109844833197567
0.002674999999999997,-0.001095626113848957,-0.4106418366716458
0.002687499999999995,-0.001095626113848957,-0.410299190023535
0.002699999999999994,-0.001095626113848957,-0.4099565433754241
0.0027125,-0.001095626113849109,-0.4089286034310913
0.002724999999999998,-0.001430568319463092,-0.4085859567829807
0.002737499999999997,-0.001095626113848957,-0.4082433101348698
0.002749999999999996,-0.0007606839082348214,-0.4079006634867589
0.002762499999999994,-0.001095626113848957,-0.4075580168386481
0.002775,-0.001095626113848957,-0.4072153701905368
0.002787499999999998,-0.001095626113848957,-0.4061874302462046
0.002799999999999997,-0.001095626113848957,-0.4058447835980938
0.002812499999999996,-0.001095626113848957,-0.4058447835980938
0.002824999999999994,-0.001095626113848957,-0.4055021369499829
0.0028375,-0.001095626113848957,-0.405159490301872
0.002849999999999998,-0.001095626113848957,-0.405159490301872
0.002862499999999997,-0.001095626113848957,-0.4055021369499829
0.002874999999999996,-0.001095626113848957,-0.4037889037094286
0.002887499999999994,-0.001095626113848957,-0.4034462570613177
0.0029,-0.001095626113848957,-0.402760963765096
0.002912499999999998,-0.001095626113848957,-0.402760963765096
0.002924999999999997,-0.001095626113848957,-0.4024183171169852
0.002937499999999996,-0.001095626113848957,-0.4013903771726526
0.002949999999999994,-0.001095626113848957,-0.4013903771726526
0.0029625,-0.001095626113848957,-0.4003624372283198
0.002974999999999998,-0.001095626113848957,-0.4000197905802091
0.002987499999999997,-0.001095626113848957,-0.3996771439320982
0.002999999999999996,-0.0007606839082348214,-0.3996771439320982
0.003012499999999994,-0.001095626113848957,-0.3989918506358766
0.003025,-0.001095626113848805,-0.3986492039877653
0.003037499999999999,-0.0007606839082348214,-0.397963910691544
0.003049999999999997,-0.001095626113848957,-0.3972786173953222
0.003062499999999996,-0.001095626113848957,-0.3969359707472114
0.003074999999999994,-0.001095626113848957,-0.3972786173953222
0.0030875,-0.001095626113848805,-0.3972786173953219
0.003099999999999999,-0.0007606839082348214,-0.3965933240991005
0.003112499999999997,-0.0007606839082348214,-0.3959080308028788
0.003124999999999996,-0.0007606839082348214,-0.395222737506657
0.003137499999999994,-0.0007606839082348214,-0.3945374442104354
0.00315,-0.001095626113848805,-0.394537444210435
0.003162499999999999,-0.0007606839082348214,-0.3938521509142136
0.003174999999999997,-0.001095626113848957,-0.3938521509142136
0.003187499999999996,-0.001095626113848957,-0.3924815643217702
0.003199999999999995,-0.001095626113848957,-0.3921389176736593
0.0032125,-0.0007606839082349737,-0.3921389176736589
0.003224999999999999,-0.001095626113848957,-0.3911109777293267
0.003237499999999997,-0.0007606839082348214,-0.3907683310812158
0.003249999999999996,-0.0007606839082348214,-0.3900830377849941
0.003262499999999995,-0.001095626113848957,-0.3893977444887724
0.003275,-0.001095626113848957,-0.3893977444887724
0.003287499999999999,-0.001095626113848957,-0.3893977444887724
0.003299999999999997,-0.001095626113848957,-0.3890550978406616
0.003312499999999996,-0.001095626113848957,-0.3887124511925507
0.003324999999999995,-0.001095626113848957,-0.3883698045444398
0.0033375,-0.001095626113849109,-0.3883698045444394
0.003349999999999999,-0.001430568319463092,-0.3873418646001072
0.003362499999999997,-0.001430568319463092,-0.3873418646001072
0.003374999999999996,-0.001095626113848957,-0.3869992179519964
0.003387499999999995,-0.001095626113848957,-0.3863139246557746
0.003399999999999993,-0.001095626113848957,-0.3863139246557746
0.003412499999999999,-0.001095626113848957,-0.3846006914152204
0.003424999999999997,-0.001095626113848957,-0.3846006914152204
0.003437499999999996,-0.001095626113848957,-0.3839153981189986
0.003449999999999995,-0.001095626113848957,-0.3839153981189986
0.003462499999999993,-0.001095626113848957,-0.3835727514708879
0.003474999999999999,-0.001095626113848957,-0.3825448115265552
0.003487499999999998,-0.001095626113848957,-0.3822021648784443
0.003499999999999996,-0.001430568319463092,-0.3822021648784443
0.003512499999999995,-0.001095626113848957,-0.3822021648784443
0.003524999999999993,-0.001095626113848957,-0.3815168715822229
0.003537499999999999,-0.001095626113848957,-0.3811742249341117
0.003549999999999998,-0.001095626113848957,-0.3808315782860009
0.003562499999999996,-0.001095626113848957,-0.3794609916935574
0.003574999999999995,-0.001095626113848957,-0.3794609916935574
0.003587499999999993,-0.001095626113848957,-0.3791183450454467
0.003599999999999999,-0.001095626113848957,-0.3787756983973357
0.003612499999999998,-0.001095626113848957,-0.3784330517492248
0.003624999999999996,-0.001095626113848957,-0.3784330517492248
0.003637499999999995,-0.001095626113848957,-0.3777477584530031
0.003649999999999994,-0.00143056831946294,-0.3770624651567817
0.003662499999999999,-0.0007606839082348214,-0.3767198185086705
0.003674999999999998,-0.001095626113848957,-0.3763771718605597
0.003687499999999996,-0.001095626113848957,-0.3760345252124488
