PHYSICS 111A/Problem_2.1_Data.csv

#Digilent WaveForms Oscilloscope Acquisition
#Device Name: DiscoveryStudio
#Serial Number: SN:210384AEE647
#Date Time: 2024-01-31 14:24:26.935
#Sample rate: 400000Hz
#Samples: 8192
#Trigger: Source: Wavegen C1 Condition: Rising
#Average: 100
#Channel 1: Range: 20 mV/div Offset: 0 V Attenuation: 1 X Sample Mode: Average
#Channel 2: Range: 200 uV/div Offset: 0 V Attenuation: 1 X Sample Mode: Average
#Wavegen Channel 1: Running
#Mode: Simple
#Type: Sine
#Frequency: 100 Hz
#Period: 10 ms
#Amplitude: 50 mV
#Offset: 0 V
#Symmetry: 50 %
#Phase: 0 °

Time (s),Channel 1 (V),Channel 2 (V)
-0.01025,-0.009037105808960125,0.0006437879887834931
-0.0102475,-0.008923225459051316,0.0005786851256424291
-0.010245,-0.008822742797367064,0.0006300821228590458
-0.0102425,-0.008795947420917945,0.0006026703910101894
-0.01024,-0.008678717648952996,0.0005272881284257999
-0.0102375,-0.008584933831381036,0.0006814791200756878
-0.010235,-0.008574885565212612,0.0005581263267557776
-0.0102325,-0.008474402903528416,0.0006403615223023473
-0.01023,-0.008373920241844128,0.0005581263267557774
-0.0102275,-0.008313630644833541,0.0006060968574912808
-0.010225,-0.008216497405205483,0.0005684057261991035
-0.0102225,-0.008176304340531737,0.0005958174580479597
-0.01022,-0.00806912283473526,0.0005684057261991033
-0.0102175,-0.00794519421865803,0.0006540673882268187
-0.010215,-0.007888254043703627,0.0006951849860001226
-0.0102125,-0.007817916180524657,0.0006506409217457098
-0.01021,-0.007714084096784321,0.0005409939943502844
-0.0102075,-0.007740879473233404,0.000493023463614714
-0.010205,-0.007657143921829822,0.0005821115921235379
-0.0102025,-0.007553311838089486,0.0005821115921235379
-0.0102,-0.007466226864629787,0.0006026703910101755
-0.0101975,-0.007419334955843831,0.0005718321926802119
-0.010195,-0.007325551138271871,0.0006095233239724067
-0.0101925,-0.007188224833970138,0.000636935055821263
-0.01019,-0.007137983503127954,0.0006129497904535154
-0.0101875,-0.007074344484061295,0.000534141061388053
-0.010185,-0.006977211244433167,0.0006403615223023843
-0.0101825,-0.006923620491534862,0.0006095233239724175
-0.01018,-0.006829836673962947,0.000633508589340167
-0.0101775,-0.006826487251906805,0.0005786851256424293
-0.010175,-0.006659016149099735,0.0005889645250857549
-0.0101725,-0.006585328863864628,0.000517008728982474
-0.01017,-0.006514991000685693,0.0005718321926801871
-0.0101675,-0.006454701403675116,0.0005307145949069087
-0.010165,-0.006337471631710225,0.0005786851256424074
-0.0101625,-0.006290579722924195,0.0006026703910101897
-0.01016,-0.006210193593576777,0.0006437879887834836
-0.0101575,-0.006156602840678541,0.0006232291898968409
-0.010155,-0.006082915555443435,0.0005512733937935602
-0.0101525,-0.00599583058198376,0.0005958174580479725
-0.01015,-0.005935540984973215,0.0005923909915668637
-0.0101475,-0.005841757167401302,0.0005889645250857566
-0.010145,-0.005721177973380171,0.0006951849860001224
-0.0101425,-0.005677635486650268,0.0006026703910102177
-0.01014,-0.005533610338236256,0.0006643467876701447
-0.0101375,-0.00551016438384323,0.0005581263267558229
-0.010135,-0.005429778254495875,0.0006574938547079276
-0.0101325,-0.005349392125148482,0.0006472144552646017
-0.01013,-0.005305849638418645,0.0006711997206323621
-0.0101275,-0.005225463509071252,0.0005238616619446915
-0.010125,-0.005148426801780035,0.0005821115921235114
-0.0101225,-0.005024498185702771,0.0006095233239724066
-0.01012,-0.00500775107542201,0.0005615527932368783
-0.0101175,-0.004893870725513256,0.0005444204608313432
-0.010115,-0.004806785752053551,0.000582111592123591
-0.0101125,-0.004743146732986893,0.000698611452481231
-0.01011,-0.00466611002569564,0.0006437879887834928
-0.0101075,-0.004622567538965822,0.0005478469273124954
-0.010105,-0.004538831987562267,0.0006643467876701444
-0.0101025,-0.00445509643615877,0.0006129497904535386
-0.0101,-0.004347914930362209,0.0005170087289824741
-0.0100975,-0.004311071287744617,0.0005923909915668263
-0.010095,-0.00423068515839726,0.0005101557960202567
-0.0100925,-0.004126853074656878,0.000544420460831343
-0.01009,-0.00403306925708492,0.0005786851256424293
-0.0100875,-0.00392923717334454,0.0005307145949069087
-0.010085,-0.003872296998390163,0.0004758911312091958
-0.0100825,-0.003822055667548016,0.0004244941339925418
-0.01008,-0.00373832011614452,0.0005923909915667875
-0.0100775,-0.003724922427919918,0.0005855380586046466
-0.010075,-0.003604343233898807,0.0005684057261991313
-0.0100725,-0.00355745132511285,0.0006300821228590584
-0.01007,-0.003470366351653173,0.000599243924529081
-0.0100675,-0.003343088313519805,0.0005238616619446914
-0.010065,-0.003296196404733827,0.0005615527932368861
-0.0100625,-0.003205762009218053,0.0005684057261991001
-0.01006,-0.003122026457814477,0.0005649792597179949
-0.0100575,-0.003091881659309149,0.0005478469273124596
-0.010055,-0.002964603621175835,0.0005649792597179949
-0.0100525,-0.002897615180052964,0.0006814791200756237
-0.01005,-0.002803831362481049,0.0005409939943502342
-0.0100475,-0.002790433674256484,0.0004450529328791933
-0.010045,-0.002689951012572243,0.0005238616619446914
-0.0100425,-0.002629661415561697,0.0005409939943502348
-0.01004,-0.002529178753877502,0.0006403615223023392
-0.0100375,-0.002421997248080933,0.0004621852652847363
-0.010035,-0.002365057073126511,0.0005684057261990674
-0.0100325,-0.002321514586396695,0.0004895969971336054
-0.01003,-0.002200935392375597,0.0005889645250857221
-0.0100275,-0.002180838860038757,0.0005170087289824741
-0.010025,-0.002083705620410658,0.0005581263267557775
-0.0100225,-0.001999970069007124,0.0004621852652847363
-0.01002,-0.001963126426389569,0.0006095233239724068
-0.0100175,-0.001865993186761514,0.0004621852652848034
-0.010015,-0.00174541399274038,0.0005238616619446914
-0.0100125,-0.001651630175168391,0.0004827440641714021
-0.01001,-0.001584641734045594,0.0005135822625013658
-0.0100075,-0.001510954448810485,0.0004861705306524969
-0.010005,-0.00145066485179994,0.0005855380586046464
-0.0100025,-0.001363579878340264,0.0006780526535945793
-0.01,-0.00125974779459993,0.0007123173184056499
-0.009997499999999999,-0.001239651262263035,0.0006335085893401668
-0.009995,-0.001125770912354281,0.0005718321926802401
-0.0099925,-0.001112373224129663,0.0006883320530379052
-0.009989999999999999,-0.00100184229627696,0.0006232291898968457
-0.0099875,-0.0009147573228173245,0.0006335085893401673
-0.009984999999999999,-0.0008343711934699311,0.0007294496508112087
-0.0099825,-0.0007472862200102555,0.0006232291898968411
-0.009979999999999999,-0.0006602012465505802,0.0005992439245290809
-0.0099775,-0.0005999116495400631,0.0006711997206323293
-0.009974999999999999,-0.0005731162730909051,0.0006335085893401668
-0.009972499999999999,-0.0004625853452382141,0.0006472144552646311
-0.00997,-0.0004056451702838373,0.0007123173184056654
-0.009967499999999999,-0.0003018130865434236,0.000616376256934596
-0.009965,-0.000231475223364487,0.0005546998602746689
-0.009962499999999999,-0.0001108960293433985,0.0006472144552646017
-0.00996,-1.711221177144061e-05,0.0005615527932368862
-0.009957499999999999,9.006929402508288e-05,0.0006198027234157328
-0.009955,0.0001068164043057819,0.0005786851256424479
-0.0099525,0.0001939013777654648,0.0006849055865567963
-0.009949999999999999,0.0002474921306637554,0.0006403615223023808
-0.0099475,0.0003111311497304121,0.000633508589340167
-0.009944999999999999,0.0003580230585164413,0.0005958174580479816
-0.0099425,0.0004685539863690555,0.0006163762569346238
-0.009939999999999999,0.0005221447392673171,0.0005752586591613205
-0.0099375,0.0006360250891761231,0.0006917585195190137
-0.009934999999999999,0.0007030135302989503,0.0006266556563779498
-0.0099325,0.0008503881007691033,0.0006849055865567701
-0.00993,0.0009240753860042797,0.0006266556563779498
-0.009927499999999999,0.0009508707624534824,0.0006403615223023843
-0.009925,0.001108293599092055,0.0006403615223023841
-0.009922499999999999,0.001161884351990316,0.0006198027234157323
-0.00992,0.001225523371057002,0.0006437879887834927
-0.009917499999999999,0.001275764701899122,0.0005581263267557773
-0.009915,0.001372897941527178,0.0006198027234157045
-0.009912499999999999,0.001510224245829018,0.0006540673882268187
-0.00991,0.001520272511997437,0.0005718321926802495
-0.0099075,0.001657598816299237,0.0005718321926802123
-0.009904999999999999,0.001660948238355446,0.0006609203211890267
-0.0099025,0.001808322808825599,0.0006403615223023845
-0.009899999999999999,0.001841817029387013,0.0006335085893401668
-0.0098975,0.001905456048453699,0.0005512733937935604
-0.009894999999999999,0.001975793911632666,0.0006300821228590583
-0.0098925,0.002042782352755463,0.0006266556563779514
-0.009889999999999999,0.002129867326215168,0.0006403615223023843
-0.0098875,0.002237048832011641,0.0006437879887834912
-0.009885,0.002320784383415223,0.0006026703910101895
-0.009882499999999999,0.002451411843604766,0.0007088908519245383
-0.00988,0.002521749706783703,0.0006677732541512534
-0.009877499999999999,0.002642328900804793,0.0005170087289824743
-0.009875,0.0026590760110855,0.000671199720632362
-0.009872499999999999,0.002749510406601319,0.0005684057261991033
-0.00987,0.002762908094825877,0.0006163762569346021
-0.0098675,0.002916981509408385,0.0006095233239724067
-0.009864999999999999,0.00296722284025053,0.0006232291898968519
-0.0098625,0.003020813593148767,0.0006472144552646014
-0.009859999999999999,0.003091151456327781,0.0005786851256424136
-0.0098575,0.003194983540068116,0.000544420460831343
-0.009854999999999999,0.003312213312033063,0.000691758519519014
-0.0098525,0.003365804064931325,0.0006951849860001223
-0.009849999999999999,0.003462937304559425,0.0006506409217457101
-0.0098475,0.003476334992783984,0.0006060968574913185
-0.009845,0.003620360141198068,0.0005786851256424291
-0.009842499999999999,0.003623709563254244,0.0006472144552645846
-0.00984,0.003704095692601601,0.0006095233239724065
-0.009837499999999999,0.003817976042510463,0.0005444204608313491
-0.009835,0.003941904658587636,0.0005581263267557778
-0.009832499999999999,0.00400219425559818,0.0007397290502545348
-0.00983,0.004106026339338516,0.0006643467876701788
-0.009827499999999999,0.004102676917282422,0.0006677732541512531
-0.009825,0.004173014780461359,0.0006506409217457179
-0.0098225,0.004213207845135088,0.000678052653594579
-0.009819999999999999,0.004350534149436922,0.0005992439245290967
-0.0098175,0.004430920278784278,0.0006335085893401668
-0.009814999999999999,0.004457715655233409,0.0005752586591613208
-0.0098125,0.004534752362524661,0.0007465819832167518
-0.009809999999999999,0.00469887404327559,0.0006198027234157324
-0.0098075,0.004732368263836988,0.0007123173184056233
-0.009804999999999999,0.004816103815240539,0.0006711997206323621
-0.0098025,0.004856296879914216,0.0006814791200756836
-0.0098,0.004950080697486193,0.0006198027234157326
-0.009797499999999999,0.005050563359170461,0.0006643467876701042
-0.009795,0.005107503534124837,0.0005752586591613204
-0.009792499999999999,0.005151046020854675,0.0005238616619446914
-0.00979,0.005221383884033643,0.0006369350558212754
-0.009787499999999999,0.005295071169268755,0.000588964525085755
-0.009785,0.005455843427963469,0.0006643467876701104
-0.0097825,0.005536229557310934,0.0007260231843301001
-0.009779999999999999,0.005593169732265364,0.000708890851924549
-0.0097775,0.005650109907219742,0.0006917585195190134
-0.009774999999999999,0.005753941990960169,0.0006506409217456918
-0.0097725,0.005854424652644363,0.0006095233239724066
-0.009769999999999999,0.00589126829526192,0.0006369350558212755
-0.0097675,0.00594150962610404,0.000660920321189036
-0.009764999999999999,0.006001799223114584,0.0006643467876701444
-0.0097625,0.006105631306854917,0.0007637143156222497
-0.00976,0.006246307033212896,0.000695184986000122
-0.009757499999999999,0.006353488539009433,0.0005341410613880455
-0.009755,0.006383633337514691,0.0005958174580479726
-0.009752499999999999,0.006467368888918258,0.0006883320530378926
-0.00975,0.006537706752097193,0.000660920321189036
-0.009747499999999999,0.006571200972658608,0.000705464385443448
-0.009745,0.006654936524062105,0.0007671407821033753
-0.009742499999999999,0.006758768607802525,0.0006883320530379053
-0.00974,0.006802311094532345,0.0006266556563779778
-0.0097375,0.006869299535655191,0.0006883320530379051
-0.009734999999999999,0.006989878729676315,0.0007191702513678673
-0.0097325,0.007066915436967532,0.0006849055865567963
-0.009729999999999999,0.00715734983248335,0.0007260231843300999
-0.0097275,0.007207591163325472,0.0007260231843300996
-0.009724999999999999,0.007331519779402693,0.0007705672485845122
-0.0097225,0.007418604752862331,0.0007191702513679063
-0.009719999999999999,0.007472195505760632,0.0005752586591613205
-0.0097175,0.007495641460153611,0.0005923909915668559
-0.009715,0.007622919498286982,0.000616376256934624
-0.009712499999999999,0.007653064296792299,0.000691758519518998
-0.00971,0.00774684811436421,0.0006574938547079274
-0.009707499999999999,0.007880824996609864,0.0006506409217457104
-0.009705,0.007934415749508122,0.0006266556563779499
-0.009702499999999999,0.008028199567080082,0.0007157437848867743
-0.0097,0.008111935118483576,0.0006060968574913479
-0.0096975,0.008188971825774868,0.0007191702513678827
-0.009694999999999999,0.008262659111010017,0.0006849055865567657
-0.0096925,0.008349744084469651,0.0006163762569346243
-0.009689999999999999,0.008376539460918819,0.0005718321926802071
-0.0096875,0.008456925590266175,0.0005615527932368859
-0.009684999999999999,0.008510516343164439,0.0006095233239724065
-0.0096825,0.008600950738680255,0.0006026703910101897
-0.009679999999999999,0.008698083978308355,0.0006095233239724067
-0.0096775,0.008728228776813611,0.0006335085893401561
-0.009675,0.00888565161345227,0.0006266556563779499
-0.009672499999999999,0.008966037742799669,0.0005649792597180119
-0.00967,0.008982784853080367,0.0006026703910101896
-0.009667499999999999,0.009073219248596217,0.0006129497904535778
-0.009665,0.009140207689719012,0.00075000844969786
-0.009662499999999999,0.009230642085234827,0.000743155516735643
-0.00966,0.009311028214582183,0.0007123173184056791
-0.009657499999999999,0.009428257986547168,0.0006095233239724066
-0.009655,0.009511993537950665,0.0006609203211890125
-0.0096525,0.009589030245241954,0.0006095233239724066
-0.009649999999999999,0.009662717530477071,0.0006060968574913105
-0.0096475,0.009679464640757772,0.0006335085893401669
-0.009644999999999999,0.009783296724498155,0.000695184986000122
-0.0096425,0.009836887477396417,0.0006574938547079275
-0.009639999999999999,0.009937370139080658,0.0007465819832167514
-0.0096375,0.0100077080022596,0.000588964525085827
-0.009634999999999999,0.01010149181983159,0.0006060968574912982
-0.0096325,0.01010484124188773,0.0006129497904535123
-0.00963,0.01024551696824567,0.0006506409217457101
-0.009627499999999999,0.01034265020787381,0.0006574938547078993
-0.009625,0.01044313286955801,0.0005958174580479722
-0.009622499999999999,0.01050007304451241,0.0007088908519245567
-0.00962,0.01059385686208437,0.0006540673882268189
-0.009617499999999999,0.01061060397236508,0.0006129497904535153
-0.009615,0.01070773721199314,0.0006711997206323353
-0.0096125,0.01081156929573356,0.0006917585195190137
-0.009609999999999999,0.0108618106265757,0.0006232291898968755
-0.0096075,0.0109120519574178,0.0006986114524812309
-0.009604999999999999,0.01101253461910211,0.0007191702513678842
-0.0096025,0.0111632586116284,0.0007225967178489914
-0.009599999999999999,0.01123694589686351,0.000616376256934624
-0.0095975,0.01126709069536879,0.0005512733937935602
-0.009594999999999999,0.01133742855854776,0.0006574938547079276
-0.0095925,0.01141446526583898,0.000633508589340178
-0.00959,0.01148480312901798,0.0006472144552646014
-0.009587499999999999,0.01155514099219697,0.000640361522302373
-0.009585,0.01160538232303907,0.000616376256934624
-0.009582499999999999,0.01175945573762158,0.0006026703910102424
-0.00958,0.0117862511140707,0.0007191702513678826
-0.009577499999999999,0.01191017973014793,0.000698611452481231
-0.009575,0.01201066239183213,0.0007328761172923014
-0.009572499999999999,0.01208769909912342,0.0007054643854434483
-0.00957,0.01211784389762868,0.0007123173184056622
-0.0095675,0.01219153118286381,0.0006403615223023843
-0.009564999999999999,0.01226856789015506,0.0005923909915668744
-0.0095625,0.01228866442249191,0.000616376256934624
-0.009559999999999999,0.01236570112978315,0.0007088908519245568
-0.0095575,0.01247958147969196,0.0006986114524812308
-0.009554999999999999,0.01257336529726391,0.0007054643854434484
-0.0095525,0.01266714911483584,0.0006711997206323773
-0.009549999999999999,0.01275088466623941,0.0006403615223023844
-0.0095475,0.01283796963969904,0.0006849055865567758
-0.009545,0.0129116569249342,0.0006129497904535154
-0.009542499999999999,0.01297864536605704,0.0006849055865567701
-0.00954,0.01301883843073072,0.0006266556563779498
-0.009537499999999999,0.01311262224830268,0.0006643467876701449
-0.009535,0.01316286357914479,0.0007191702513678827
-0.009532499999999999,0.01323320144232376,0.000647214455264602
-0.00953,0.01331693699372726,0.0007157437848867429
-0.0095275,0.0134140702333554,0.0006677732541512535
-0.009524999999999999,0.01350450462887125,0.000708890851924524
-0.0095225,0.01358154133616246,0.0006369350558212758
-0.009519999999999999,0.01359158960233092,0.000630082122859046
-0.0095175,0.01368872284195898,0.0006026703910101894
-0.009514999999999999,0.01378250665953093,0.0006849055865567963
-0.0095125,0.01384279625654147,0.0006917585195190137
-0.009509999999999999,0.01388968816532746,0.0006711997206323621
-0.0095075,0.01397342371673096,0.0005752586591613643
-0.009505,0.01407390637841523,0.0007260231843300997
-0.009502499999999999,0.01414759366365038,0.0007534349161789407
-0.0095,0.0142413774812223,0.0006917585195190137
-0.009497499999999999,0.01434520956496271,0.0006403615223023549
-0.009495,0.01441219800608551,0.0005752586591613205
-0.009492499999999999,0.01445574049281535,0.000770567248584512
-0.00949,0.01450933124571359,0.0007465819832167625
-0.009487499999999999,0.01459641621917329,0.0007294496508112084
-0.009485,0.01467680234852064,0.0007739937150656006
-0.0094825,0.01475383905581193,0.0007397290502545342
-0.009479999999999999,0.01485767113955233,0.0006814791200756847
-0.0094775,0.01487776767188916,0.0006746261871134707
-0.009474999999999999,0.01498829859974182,0.0006677732541512532
-0.0094725,0.01507203415114536,0.0006369350558212757
-0.009469999999999999,0.01513902259226819,0.0006883320530379052
-0.0094675,0.01518591450105415,0.0006540673882268343
-0.009464999999999999,0.015252902942177,0.00075000844969786
-0.0094625,0.01535338560386119,0.0006814791200757189
-0.00946,0.01537683155825423,0.000698611452481231
-0.009457499999999999,0.01546391653171394,0.0006095233239724271
-0.009455,0.01555435092722972,0.0006540673882268189
-0.009452499999999999,0.01564478532274554,0.0006026703910101895
-0.00945,0.01572852087414907,0.0007020379189623398
-0.009447499999999999,0.01583570237994559,0.0006746261871134707
-0.009445,0.01585914833433857,0.0006335085893401859
-0.0094425,0.01595628157396669,0.000695184986000122
-0.009439999999999999,0.01602327001508953,0.0006677732541512625
-0.0094375,0.01606681250181935,0.0006883320530379051
-0.009434999999999999,0.01614719863116678,0.0007363025837733996
-0.0094325,0.01621753649434571,0.0006780526535945792
-0.009429999999999999,0.01629457320163697,0.0005581263267557776
-0.0094275,0.01635821222070366,0.0005649792597179946
-0.009424999999999999,0.0164754419926686,0.0006849055865567964
-0.0094225,0.01650223736911772,0.0006540673882268327
-0.00942,0.01658597292052126,0.0005615527932368863
-0.009417499999999999,0.01663621425136344,0.000719170251367839
-0.009415,0.01674674517921606,0.0006232291898968411
-0.009412499999999999,0.01681038419828278,0.0007123173184056326
-0.00941,0.01690081859379856,0.0006403615223023843
-0.009407499999999999,0.01695775876875295,0.0005307145949069086
-0.009405,0.017054892008381,0.0006403615223023348
-0.009402499999999999,0.01706494027454948,0.0006232291898968413
-0.0094,0.01714532640389681,0.0007088908519245175
